Data validation and editing
…
## # A tibble: 3 x 5
##   artist       track                     wk1   wk2   wk3
##   <chr>        <chr>                   <dbl> <dbl> <dbl>
## 1 2 Pac        Baby Don't Cry (Keep...    87    82    72
## 2 2Ge+her      The Hardest Part Of ...    91    87    92
## 3 3 Doors Down Kryptonite                 81    70    68

Converting between wide and long data

pivot_longer and pivot_wider in the tidyr package

billboard %>% pivot_longer( cols = starts_with("wk")) %>% 
  print(n=6)

## # A tibble: 951 x 4
##   artist  track                   name  value
##   <chr>   <chr>                   <chr> <dbl>
## 1 2 Pac   Baby Don't Cry (Keep... wk1      87
## 2 2 Pac   Baby Don't Cry (Keep... wk2      82
## 3 2 Pac   Baby Don't Cry (Keep... wk3      72
## 4 2Ge+her The Hardest Part Of ... wk1      91
## 5 2Ge+her The Hardest Part Of ... wk2      87
## 6 2Ge+her The Hardest Part Of ... wk3      92
## # ... with 945 more rows
…
